{
  "icons": [
    {
      "title": "Address",
      "info": "62,74th Avenue-galendale NY 11385 , US"
    },
    {
      "title": "Email",
      "info": "email:contact@domain.com"
    },
    {
      "title": "Phone",
      "info": "call:+1800-567-879"
    },
    {
      "title": "Timing",
      "info": "available at 10am-8pm"
    }
  ]
}
