{
  "filter_category": [
    "Frock",
    "Jeans     ",
    "Skirt",
    "OverCoat",
    "Tops & Tees",
    "SportsWear",
    "Backless Dresses"
  ],
  "filter_color": [
    "Red",
    "Yello",
    "Orange",
    "Black",
    "Pink",
    "White",
    "Maroon",
    "Sandal",
    "Silver",
    "Blue"
  ],
  "filter_size": ["S", "M", "L"],
  "filter_brand": ["Nicole Miller", "Boon", "Converse", "Lacoste"],
  "filter_price": [
    "₹ 100-Rs.200",
    "₹ 200-Rs.300",
    "₹ 300-Rs.400",
    "₹ 400-Rs.500",
    "₹ 500-Rs.600",
    "₹ 600-Rs.700"
  ],
  "filter_sale": [
    {
      "url": "https://cdn.shopify.com/s/files/1/0033/7064/7667/products/product23.jpg?v=1531460220",
      "brandname": "Regular Fit Skirt",
      "price": "₹ 349"
    }
  ],
  "product_list": [
    {
      "product_img": "https://cdn.shopify.com/s/files/1/0033/7064/7667/products/product4_grande.jpg?v=1531391778",
      "product_name": "Aarika Layered Dress",
      "product_brand": "Brand : NICOLE MILLAR",
      "product_price": "₹ 680"
    },
    {
      "product_img": "https://cdn.shopify.com/s/files/1/0033/7064/7667/products/product1_grande.jpg?v=1531392496",
      "product_name": "Baby's Girl Frock",
      "product_brand": "Brand : BOON",
      "product_price": "₹ 980"
    },
    {
      "product_img": "https://cdn.shopify.com/s/files/1/0033/7064/7667/products/product10_grande.jpg?v=1531393991",
      "product_name": "Classic aundry Dress",
      "product_brand": "Brand : NICOLE MILLAR",
      "product_price": "₹ 555"
    },
    {
      "product_img": "https://cdn.shopify.com/s/files/1/0033/7064/7667/products/product15_93917301-c9bb-4c25-9b39-30977bc705ce_grande.jpg?v=1531394076",
      "product_name": "Cotton T-shirt Fit ",
      "product_brand": "Brand : NICOLE MILLAR",
      "product_price": "₹ 123"
    },
    {
      "product_img": "https://cdn.shopify.com/s/files/1/0033/7064/7667/products/product28_e9849e19-37af-43f6-be60-e9c25f8ab8d9_grande.jpg?v=1531394902",
      "product_name": "Crepe Skater Dress",
      "product_brand": "Brand : BOON",
      "product_price": "₹ 211"
    },
    {
      "product_img": "https://cdn.shopify.com/s/files/1/0033/7064/7667/products/product16_grande.jpg?v=1531394413",
      "product_name": "Delightful Dress",
      "product_brand": "Brand : BOON",
      "product_price": "₹ 470"
    },
    {
      "product_img": "https://cdn.shopify.com/s/files/1/0033/7064/7667/products/product18_grande.jpg?v=1531456322",
      "product_name": "Export Woman's Cotton",
      "product_brand": "Brand : BOON",
      "product_price": "₹ 620"
    },
    {
      "product_img": "https://cdn.shopify.com/s/files/1/0033/7064/7667/products/product19_grande.jpg?v=1531458246",
      "product_name": "Fairy Pleated Dress",
      "product_brand": "Brand : CONVERSE",
      "product_price": "₹ 210"
    },
    {
      "product_img": "https://cdn.shopify.com/s/files/1/0033/7064/7667/products/product2_grande.jpg?v=1531392933",
      "product_name": "Fancy Frock",
      "product_brand": "Brand : CONVERSE",
      "product_price": "₹ 670"
    },
    {
      "product_img": "https://cdn.shopify.com/s/files/1/0033/7064/7667/products/product6_3b4522d9-4280-43f4-910c-7cfdbe723a70_grande.jpg?v=1531392645",
      "product_name": "Fashion Baby girl",
      "product_brand": "Brand : BOON",
      "product_price": "₹ 430"
    },
    {
      "product_img": "https://cdn.shopify.com/s/files/1/0033/7064/7667/products/product20_grande.jpg?v=1531459710",
      "product_name": "Girls Casual Skirt",
      "product_brand": "Brand : CONVERSE",
      "product_price": "₹ 320"
    },
    {
      "product_img": "https://cdn.shopify.com/s/files/1/0033/7064/7667/products/product17_a816386d-637f-44dd-b94e-ebb362ac355c_grande.jpg?v=1531392731",
      "product_name": "Girl's A line Dress",
      "product_brand": "Brand : CONVERSE",
      "product_price": "₹ 770"
    },
    {
      "product_img": "https://cdn.shopify.com/s/files/1/0033/7064/7667/products/product27_grande.jpg?v=1531460958",
      "product_name": "Girl's A line Dress",
      "product_brand": "Brand : CONVERSE",
      "product_price": "₹ 770"
    },
    {
      "product_img": "https://cdn.shopify.com/s/files/1/0033/7064/7667/products/product3_d9938c08-21b7-40a0-aecd-84ea2c47f03d_grande.jpg?v=1531392106",
      "product_name": "Girl's A line Dress",
      "product_brand": "Brand : CONVERSE",
      "product_price": "₹ 770"
    },
    {
      "product_img": "https://cdn.shopify.com/s/files/1/0033/7064/7667/products/product13_50d4c0cd-4921-40bb-aa16-0468afdc67cf_grande.jpg?v=1531393205",
      "product_name": "Girl's A line Dress",
      "product_brand": "Brand : CONVERSE",
      "product_price": "₹ 770"
    },
    {
      "product_img": "https://cdn.shopify.com/s/files/1/0033/7064/7667/products/product9_grande.jpg?v=1531393459",
      "product_name": "Girl's A line Dress",
      "product_brand": "Brand : CONVERSE",
      "product_price": "₹ 770"
    },
    {
      "product_img": "https://cdn.shopify.com/s/files/1/0033/7064/7667/products/product14_grande.jpg?v=1531460600",
      "product_name": "Girl's A line Dress",
      "product_brand": "Brand : CONVERSE",
      "product_price": "₹ 770"
    },
    {
      "product_img": "https://cdn.shopify.com/s/files/1/0033/7064/7667/products/product8_da0a2eb8-15a8-4bf6-880c-d7b51e8c422f_grande.jpg?v=1531391916",
      "product_name": "Girl's A line Dress",
      "product_brand": "Brand : CONVERSE",
      "product_price": "₹ 770"
    },
    {
      "product_img": "https://cdn.shopify.com/s/files/1/0033/7064/7667/products/product5_grande.jpg?v=1531460378",
      "product_name": "Girl's A line Dress",
      "product_brand": "Brand : CONVERSE",
      "product_price": "₹ 770"
    },
    {
      "product_img": "https://cdn.shopify.com/s/files/1/0033/7064/7667/products/product22_1d97f8eb-a4bc-452e-9e48-be6b3003339b_grande.jpg?v=1531394548",
      "product_name": "Girl's A line Dress",
      "product_brand": "Brand : CONVERSE",
      "product_price": "₹ 770"
    }
  ]
}
